…
## dplyr alternatives

All tidyverse alternative functions are prefixed with ‘f\_’. For
example, `dplyr::distinct` becomes `fastplyr::f_distinct`.

### distinct

``` r
flights |> 
  f_distinct(origin, dest)
#> # A tibble: 224 × 2
#>    origin dest 
#>    <chr>  <chr>
#>  1 EWR    IAH  
#>  2 LGA    IAH  
#>  3 JFK    MIA  
#>  4 JFK    BQN  
#>  5 LGA    ATL  
#>  6 EWR    ORD  
#>  7 EWR    FLL  
#>  8 LGA    IAD  
#>  9 JFK    MCO  
#> 10 LGA    ORD  
#> # ℹ 214 more rows
```
…
`f_summarise` behaves like dplyr’s `summarise` except for two things:

- It evaluates expressions independently
- There are optimisations for common statistical functions which are
  very fast for many groups

``` r
grouped_flights <- flights |> 
  group_by(across(where(is.character)))

grouped_flights |> 
  f_summarise(
    n = n(), mean_dep_delay = mean(dep_delay)
  )
#> # A tibble: 52,807 × 6
#>    carrier tailnum origin dest      n mean_dep_delay
#>    <chr>   <chr>   <chr>  <chr> <int>          <dbl>
#>  1 9E      N146PQ  JFK    ATL       8           9.62
#>  2 9E      N153PQ  JFK    ATL       5          -0.4 
#>  3 9E      N161PQ  JFK    ATL       3          -2   
#>  4 9E      N162PQ  EWR    DTW       1         160   
#>  5 9E      N162PQ  JFK    ATL       1          -6   
#>  6 9E      N170PQ  EWR    ATL       3          -5.67
#>  7 9E      N170PQ  JFK    ATL       4          -0.75
#>  8 9E      N176PQ  EWR    DTW       2           8.5 
#>  9 9E      N176PQ  JFK    ATL       5          -3.8 
#> 10 9E      N181PQ  EWR    DTW       2          -7.5 
#> # ℹ 52,797 more rows
```
…
### slice

`f_slice` and other `f_slice_` functions are very fast for many groups.

``` r
grouped_flights |> 
  f_slice(1)
#> # A tibble: 52,807 × 19
#> # Groups:   carrier, tailnum, origin, dest [52,807]
#>     year month   day dep_time sched_dep_time dep_delay arr_time sched_arr_time
#>    <int> <int> <int>    <int>          <int>     <dbl>    <int>          <int>
#>  1  2013     1     7      614            615        -1      812            855
#>  2  2013     1     8      612            615        -3      901            855
#>  3  2013     1     9      615            615         0       NA            855
#>  4  2013     1    25     1530           1250       160     1714           1449
#>  5  2013     2    24      609            615        -6      835            855
#>  6  2013     5     1     1140           1145        -5     1339           1403
#>  7  2013     1    10      613            615        -2      840            855
#>  8  2013     2     1     1301           1250        11     1458           1449
#>  9  2013     1    17      612            615        -3      906            855
#> 10  2013     1    11     1244           1250        -6     1459           1449
#> # ℹ 52,797 more rows
#> # ℹ 11 more variables: arr_delay <dbl>, carrier <chr>, flight <int>,
#> #   tailnum <chr>, origin <chr>, dest <chr>, air_time <dbl>, distance <dbl>,
#> #   hour <dbl>, minute <dbl>, time_hour <dttm>
```

``` r

grouped_flights |>
  f_slice_head(3)
#> # A tibble: 125,770 × 19
#> # Groups:   carrier, tailnum, origin, dest [52,807]
#>     year month   day dep_time sched_dep_time dep_delay arr_time sched_arr_time
#>    <int> <int> <int>    <int>          <int>     <dbl>    <int>          <int>
#>  1  2013     1     7      614            615        -1      812            855
#>  2  2013     1    13      612            615        -3      853            855
#>  3  2013     2     3      617            615         2      902            855
#>  4  2013     1     8      612            615        -3      901            855
#>  5  2013     1    22      614            615        -1      857            855
#>  6  2013     1    27      617            615         2      831            855
#>  7  2013     1     9      615            615         0       NA            855
#>  8  2013     1    12      613            615        -2      839            855
#>  9  2013     2     5      611            615        -4      847            855
#> 10  2013     1    25     1530           1250       160     1714           1449
#> # ℹ 125,760 more rows
#> # ℹ 11 more variables: arr_delay <dbl>, carrier <chr>, flight <int>,
#> #   tailnum <chr>, origin <chr>, dest <chr>, air_time <dbl>, distance <dbl>,
#> #   hour <dbl>, minute <dbl>, time_hour <dttm>
```
…
In dplyr to work with group IDs you must use the `mutate()` +
`cur_group_id()` paradigm.

In fastplyr you can just use `add_group_id()` which is blazing fast.

``` r

## Unique ID for each group

grouped_flights |> 
  add_group_id() |> 
  f_select(group_id)
#> Adding missing grouping variables: 'carrier', 'tailnum', 'origin', 'dest'
#> # A tibble: 336,776 × 5
#> # Groups:   carrier, tailnum, origin, dest [52,807]
#>    carrier tailnum origin dest  group_id
#>    <chr>   <chr>   <chr>  <chr>    <int>
#>  1 UA      N14228  EWR    IAH      35951
#>  2 UA      N24211  LGA    IAH      36937
#>  3 AA      N619AA  JFK    MIA       8489
#>  4 B6      N804JB  JFK    BQN      15462
#>  5 DL      N668DN  LGA    ATL      20325
#>  6 UA      N39463  EWR    ORD      39386
#>  7 B6      N516JB  EWR    FLL      10606
#>  8 EV      N829AS  LGA    IAD      33062
#>  9 B6      N593JB  JFK    MCO      12483
#> 10 AA      N3ALAA  LGA    ORD       4468
#> # ℹ 336,766 more rows
```
…
### duplicate rows

Finding duplicate rows is a very common dataset operation and there is a
dedicated function `f_duplicates()` to do exactly this.

``` r
flights |> 
  f_duplicates(time_hour)
#> # A tibble: 329,840 × 1
#>    time_hour          
#>    <dttm>             
#>  1 2013-01-01 05:00:00
#>  2 2013-01-01 05:00:00
#>  3 2013-01-01 05:00:00
#>  4 2013-01-01 05:00:00
#>  5 2013-01-01 06:00:00
#>  6 2013-01-01 06:00:00
#>  7 2013-01-01 06:00:00
#>  8 2013-01-01 06:00:00
#>  9 2013-01-01 06:00:00
#> 10 2013-01-01 06:00:00
#> # ℹ 329,830 more rows
```
…
